-----------Exception Details on  01-02-2019 10:34:11-----------------
-------------------------------------------------------------------------------------



Log Written Date: 01-02-2019 10:34:11

Error Line No : ine 238

Error Message: DbUpdateException

Exception Type: System.Data.Entity.Infrastructure.DbUpdateException

Error Location : An error occurred while updating the entries. See the inner exception for details.

 Error Page Url: http://localhost:2423/quotation/Create

User Host IP: 


--------------------------------*End*------------------------------------------



