-----------Exception Details on  04-03-2018 12:57:38 PM-----------------
-------------------------------------------------------------------------------------



Log Written Date: 04-03-2018 12:57:38 PM

Error Line No : line 56

Error Message: FileLoadException

Exception Type: System.IO.FileLoadException

Error Location : Could not load file or assembly 'EntityFramework, Version=6.0.0.0, Culture=neutral, PublicKeyToken=b77a5c561934e089' or one of its dependencies. The located assembly's manifest definition does not match the assembly reference. (Exception from HRESULT: 0x80131040)

 Error Page Url: http://localhost:2423/

User Host IP: 


--------------------------------*End*------------------------------------------



-----------Exception Details on  04-03-2018 12:57:47 PM-----------------
-------------------------------------------------------------------------------------



Log Written Date: 04-03-2018 12:57:47 PM

Error Line No : line 56

Error Message: FileLoadException

Exception Type: System.IO.FileLoadException

Error Location : Could not load file or assembly 'EntityFramework, Version=6.0.0.0, Culture=neutral, PublicKeyToken=b77a5c561934e089' or one of its dependencies. The located assembly's manifest definition does not match the assembly reference. (Exception from HRESULT: 0x80131040)

 Error Page Url: http://localhost:2423/

User Host IP: 


--------------------------------*End*------------------------------------------



-----------Exception Details on  04-03-2018 12:58:29 PM-----------------
-------------------------------------------------------------------------------------



Log Written Date: 04-03-2018 12:58:29 PM

Error Line No : line 56

Error Message: FileLoadException

Exception Type: System.IO.FileLoadException

Error Location : Could not load file or assembly 'EntityFramework, Version=6.0.0.0, Culture=neutral, PublicKeyToken=b77a5c561934e089' or one of its dependencies. The located assembly's manifest definition does not match the assembly reference. (Exception from HRESULT: 0x80131040)

 Error Page Url: http://localhost:2423/

User Host IP: 


--------------------------------*End*------------------------------------------



-----------Exception Details on  04-03-2018 01:00:09 PM-----------------
-------------------------------------------------------------------------------------



Log Written Date: 04-03-2018 01:00:09 PM

Error Line No : line 56

Error Message: FileLoadException

Exception Type: System.IO.FileLoadException

Error Location : Could not load file or assembly 'EntityFramework, Version=6.0.0.0, Culture=neutral, PublicKeyToken=b77a5c561934e089' or one of its dependencies. The located assembly's manifest definition does not match the assembly reference. (Exception from HRESULT: 0x80131040)

 Error Page Url: http://localhost:2423/

User Host IP: 


--------------------------------*End*------------------------------------------



