-----------Exception Details on  05-10-2019 15:14:08-----------------
-------------------------------------------------------------------------------------



Log Written Date: 05-10-2019 15:14:08

Error Line No : ine 274

Error Message: FormatException

Exception Type: System.FormatException

Error Location : Input string was not in a correct format.

 Error Page Url: http://localhost:2423/CustomerEnquiry/Create

User Host IP: 


--------------------------------*End*------------------------------------------



-----------Exception Details on  05-10-2019 15:21:22-----------------
-------------------------------------------------------------------------------------



Log Written Date: 05-10-2019 15:21:22

Error Line No : ine 274

Error Message: FormatException

Exception Type: System.FormatException

Error Location : Input string was not in a correct format.

 Error Page Url: http://localhost:2423/CustomerEnquiry/Create

User Host IP: 


--------------------------------*End*------------------------------------------



-----------Exception Details on  05-10-2019 15:25:50-----------------
-------------------------------------------------------------------------------------



Log Written Date: 05-10-2019 15:25:50

Error Line No : ine 360

Error Message: TargetException

Exception Type: System.Reflection.TargetException

Error Location : Non-static method requires a target.

 Error Page Url: http://localhost:2423/CustomerEnquiry/Edit/4

User Host IP: 


--------------------------------*End*------------------------------------------



-----------Exception Details on  05-10-2019 15:27:20-----------------
-------------------------------------------------------------------------------------



Log Written Date: 05-10-2019 15:27:20

Error Line No : ine 360

Error Message: TargetException

Exception Type: System.Reflection.TargetException

Error Location : Non-static method requires a target.

 Error Page Url: http://localhost:2423/CustomerEnquiry/Edit/3

User Host IP: 


--------------------------------*End*------------------------------------------



-----------Exception Details on  05-10-2019 16:52:56-----------------
-------------------------------------------------------------------------------------



Log Written Date: 05-10-2019 16:52:56

Error Line No : ine 361

Error Message: NotSupportedException

Exception Type: System.NotSupportedException

Error Location : LINQ to Entities does not recognize the method 'Int32 ToInt32(System.Object)' method, and this method cannot be translated into a store expression.

 Error Page Url: http://localhost:2423/CustomerEnquiry/Edit/6

User Host IP: 


--------------------------------*End*------------------------------------------



-----------Exception Details on  05-10-2019 16:53:03-----------------
-------------------------------------------------------------------------------------



Log Written Date: 05-10-2019 16:53:03

Error Line No : ine 361

Error Message: NotSupportedException

Exception Type: System.NotSupportedException

Error Location : LINQ to Entities does not recognize the method 'Int32 ToInt32(System.Object)' method, and this method cannot be translated into a store expression.

 Error Page Url: http://localhost:2423/CustomerEnquiry/Edit/6

User Host IP: 


--------------------------------*End*------------------------------------------



-----------Exception Details on  05-10-2019 16:53:17-----------------
-------------------------------------------------------------------------------------



Log Written Date: 05-10-2019 16:53:17

Error Line No : ine 361

Error Message: NotSupportedException

Exception Type: System.NotSupportedException

Error Location : LINQ to Entities does not recognize the method 'Int32 ToInt32(System.Object)' method, and this method cannot be translated into a store expression.

 Error Page Url: http://localhost:2423/CustomerEnquiry/Edit/6

User Host IP: 


--------------------------------*End*------------------------------------------



-----------Exception Details on  05-10-2019 16:54:24-----------------
-------------------------------------------------------------------------------------



Log Written Date: 05-10-2019 16:54:24

Error Line No : ine 361

Error Message: NotSupportedException

Exception Type: System.NotSupportedException

Error Location : LINQ to Entities does not recognize the method 'Int32 ToInt32(System.Object)' method, and this method cannot be translated into a store expression.

 Error Page Url: http://localhost:2423/CustomerEnquiry/Edit/6

User Host IP: 


--------------------------------*End*------------------------------------------



