-----------Exception Details on  07-01-2020 23:36:38-----------------
-------------------------------------------------------------------------------------



Log Written Date: 07-01-2020 23:36:38

Error Line No : ine 238

Error Message: FormatException

Exception Type: System.FormatException

Error Location : Input string was not in a correct format.

 Error Page Url: http://localhost:2423/SupplierGRN/Create

User Host IP: 


--------------------------------*End*------------------------------------------



