-----------Exception Details on  07-02-2019 13:45:20-----------------
-------------------------------------------------------------------------------------



Log Written Date: 07-02-2019 13:45:20

Error Line No : ine 107

Error Message: FormatException

Exception Type: System.FormatException

Error Location : String was not recognized as a valid DateTime.

 Error Page Url: http://localhost:2423/ProductionPlan/Create2

User Host IP: 


--------------------------------*End*------------------------------------------



-----------Exception Details on  07-02-2019 18:40:35-----------------
-------------------------------------------------------------------------------------



Log Written Date: 07-02-2019 18:40:35

Error Line No : ine 238

Error Message: DbUpdateException

Exception Type: System.Data.Entity.Infrastructure.DbUpdateException

Error Location : An error occurred while updating the entries. See the inner exception for details.

 Error Page Url: http://localhost:2423/quotation/Create

User Host IP: 


--------------------------------*End*------------------------------------------



