-----------Exception Details on  09-02-2019 17:09:24-----------------
-------------------------------------------------------------------------------------



Log Written Date: 09-02-2019 17:09:24

Error Line No : ine 365

Error Message: InvalidOperationException

Exception Type: System.InvalidOperationException

Error Location : Nullable object must have a value.

 Error Page Url: http://localhost:2423/CustomerEnquiry/Edit/5

User Host IP: 


--------------------------------*End*------------------------------------------



