-----------Exception Details on  09-08-2019 16:24:52-----------------
-------------------------------------------------------------------------------------



Log Written Date: 09-08-2019 16:24:52

Error Line No : ine 133

Error Message: FormatException

Exception Type: System.FormatException

Error Location : String was not recognized as a valid DateTime.

 Error Page Url: http://localhost:2423/ProductionPlan/Create2

User Host IP: 


--------------------------------*End*------------------------------------------



-----------Exception Details on  09-08-2019 16:27:46-----------------
-------------------------------------------------------------------------------------



Log Written Date: 09-08-2019 16:27:46

Error Line No : ine 133

Error Message: FormatException

Exception Type: System.FormatException

Error Location : String was not recognized as a valid DateTime.

 Error Page Url: http://localhost:2423/ProductionPlan/Create2

User Host IP: 


--------------------------------*End*------------------------------------------



