-----------Exception Details on  10-01-2020 18:20:37-----------------
-------------------------------------------------------------------------------------



Log Written Date: 10-01-2020 18:20:37

Error Line No : line 54

Error Message: EntityException

Exception Type: System.Data.Entity.Core.EntityException

Error Location : The underlying provider failed on Open.

 Error Page Url: http://localhost:2423/

User Host IP: 


--------------------------------*End*------------------------------------------



-----------Exception Details on  10-01-2020 18:20:58-----------------
-------------------------------------------------------------------------------------



Log Written Date: 10-01-2020 18:20:58

Error Line No : line 54

Error Message: EntityException

Exception Type: System.Data.Entity.Core.EntityException

Error Location : The underlying provider failed on Open.

 Error Page Url: http://localhost:2423/

User Host IP: 


--------------------------------*End*------------------------------------------



