-----------Exception Details on  11-01-2020 14:57:50-----------------
-------------------------------------------------------------------------------------



Log Written Date: 11-01-2020 14:57:50

Error Line No : ine 319

Error Message: IndexOutOfRangeException

Exception Type: System.IndexOutOfRangeException

Error Location : Index was outside the bounds of the array.

 Error Page Url: http://localhost:2423/MaterialIssue/Create

User Host IP: 


--------------------------------*End*------------------------------------------



-----------Exception Details on  11-01-2020 17:28:55-----------------
-------------------------------------------------------------------------------------



Log Written Date: 11-01-2020 17:28:55

Error Line No : line 76

Error Message: FormatException

Exception Type: System.FormatException

Error Location : Input string was not in a correct format.

 Error Page Url: http://localhost:2423/ProcessIncharge/Create/4

User Host IP: 


--------------------------------*End*------------------------------------------



-----------Exception Details on  11-01-2020 18:59:36-----------------
-------------------------------------------------------------------------------------



Log Written Date: 11-01-2020 18:59:36

Error Line No : line 65

Error Message: FormatException

Exception Type: System.FormatException

Error Location : Input string was not in a correct format.

 Error Page Url: http://localhost:2423/ProcessCycle/Create

User Host IP: 


--------------------------------*End*------------------------------------------



-----------Exception Details on  11-01-2020 19:03:06-----------------
-------------------------------------------------------------------------------------



Log Written Date: 11-01-2020 19:03:06

Error Line No : on frm)

Error Message: FormatException

Exception Type: System.FormatException

Error Location : Input string was not in a correct format.

 Error Page Url: http://localhost:2423/ProcessCycle/Create

User Host IP: 


--------------------------------*End*------------------------------------------



-----------Exception Details on  11-01-2020 19:07:41-----------------
-------------------------------------------------------------------------------------



Log Written Date: 11-01-2020 19:07:41

Error Line No : on frm)

Error Message: FormatException

Exception Type: System.FormatException

Error Location : Input string was not in a correct format.

 Error Page Url: http://localhost:2423/ProcessCycle/Create

User Host IP: 


--------------------------------*End*------------------------------------------



