-----------Exception Details on  12-08-2019 13:03:43-----------------
-------------------------------------------------------------------------------------



Log Written Date: 12-08-2019 13:03:43

Error Line No : ine 125

Error Message: FormatException

Exception Type: System.FormatException

Error Location : The DateTime represented by the string is not supported in calendar System.Globalization.GregorianCalendar.

 Error Page Url: http://localhost:2423/ProductionPlan/Create2

User Host IP: 


--------------------------------*End*------------------------------------------



-----------Exception Details on  12-08-2019 13:17:20-----------------
-------------------------------------------------------------------------------------



Log Written Date: 12-08-2019 13:17:20

Error Line No : ine 125

Error Message: FormatException

Exception Type: System.FormatException

Error Location : The DateTime represented by the string is not supported in calendar System.Globalization.GregorianCalendar.

 Error Page Url: http://localhost:2423/ProductionPlan/Create2

User Host IP: 


--------------------------------*End*------------------------------------------



-----------Exception Details on  12-08-2019 13:23:20-----------------
-------------------------------------------------------------------------------------



Log Written Date: 12-08-2019 13:23:20

Error Line No : ine 125

Error Message: FormatException

Exception Type: System.FormatException

Error Location : The DateTime represented by the string is not supported in calendar System.Globalization.GregorianCalendar.

 Error Page Url: http://localhost:2423/ProductionPlan/Create2

User Host IP: 


--------------------------------*End*------------------------------------------



