-----------Exception Details on  12-03-2020 00:07:40-----------------
-------------------------------------------------------------------------------------



Log Written Date: 12-03-2020 00:07:40

Error Line No : ine 355

Error Message: DbUpdateException

Exception Type: System.Data.Entity.Infrastructure.DbUpdateException

Error Location : Unable to update the EntitySet 'T_POOtherCharge' because it has a DefiningQuery and no <InsertFunction> element exists in the <ModificationFunctionMapping> element to support the current operation.

 Error Page Url: http://localhost:2423/CustomerPO/Create

User Host IP: 


--------------------------------*End*------------------------------------------



-----------Exception Details on  12-03-2020 00:12:53-----------------
-------------------------------------------------------------------------------------



Log Written Date: 12-03-2020 00:12:53

Error Line No : ine 355

Error Message: DbUpdateException

Exception Type: System.Data.Entity.Infrastructure.DbUpdateException

Error Location : Unable to update the EntitySet 'T_POOtherCharge' because it has a DefiningQuery and no <InsertFunction> element exists in the <ModificationFunctionMapping> element to support the current operation.

 Error Page Url: http://localhost:2423/CustomerPO/Create

User Host IP: 


--------------------------------*End*------------------------------------------



