-----------Exception Details on  13-08-2019 12:34:21-----------------
-------------------------------------------------------------------------------------



Log Written Date: 13-08-2019 12:34:21

Error Line No : ine 131

Error Message: FormatException

Exception Type: System.FormatException

Error Location : String was not recognized as a valid DateTime.

 Error Page Url: http://localhost:2423/CustomerPO/Create

User Host IP: 


--------------------------------*End*------------------------------------------



-----------Exception Details on  13-08-2019 15:30:50-----------------
-------------------------------------------------------------------------------------



Log Written Date: 13-08-2019 15:30:50

Error Line No : ine 131

Error Message: FormatException

Exception Type: System.FormatException

Error Location : String was not recognized as a valid DateTime.

 Error Page Url: http://localhost:2423/CustomerPO/Create

User Host IP: 


--------------------------------*End*------------------------------------------



-----------Exception Details on  13-08-2019 15:33:41-----------------
-------------------------------------------------------------------------------------



Log Written Date: 13-08-2019 15:33:41

Error Line No : ine 131

Error Message: FormatException

Exception Type: System.FormatException

Error Location : String was not recognized as a valid DateTime.

 Error Page Url: http://localhost:2423/CustomerPO/Create

User Host IP: 


--------------------------------*End*------------------------------------------



