-----------Exception Details on  13-02-2020 21:01:08-----------------
-------------------------------------------------------------------------------------



Log Written Date: 13-02-2020 21:01:08

Error Line No : ine 739

Error Message: FormatException

Exception Type: System.FormatException

Error Location : Input string was not in a correct format.

 Error Page Url: http://localhost:2423/Item/Edit/27

User Host IP: 


--------------------------------*End*------------------------------------------



-----------Exception Details on  13-02-2020 21:04:51-----------------
-------------------------------------------------------------------------------------



Log Written Date: 13-02-2020 21:04:51

Error Line No : ine 739

Error Message: FormatException

Exception Type: System.FormatException

Error Location : Input string was not in a correct format.

 Error Page Url: http://localhost:2423/Item/Edit/27

User Host IP: 


--------------------------------*End*------------------------------------------



-----------Exception Details on  13-02-2020 21:34:00-----------------
-------------------------------------------------------------------------------------



Log Written Date: 13-02-2020 21:34:00

Error Line No : ine 735

Error Message: FormatException

Exception Type: System.FormatException

Error Location : Input string was not in a correct format.

 Error Page Url: http://localhost:2423/Item/Edit/27

User Host IP: 


--------------------------------*End*------------------------------------------



-----------Exception Details on  13-02-2020 21:35:00-----------------
-------------------------------------------------------------------------------------



Log Written Date: 13-02-2020 21:35:00

Error Line No : ine 735

Error Message: FormatException

Exception Type: System.FormatException

Error Location : Input string was not in a correct format.

 Error Page Url: http://localhost:2423/Item/Edit/27

User Host IP: 


--------------------------------*End*------------------------------------------



-----------Exception Details on  13-02-2020 21:38:07-----------------
-------------------------------------------------------------------------------------



Log Written Date: 13-02-2020 21:38:07

Error Line No : ine 735

Error Message: FormatException

Exception Type: System.FormatException

Error Location : Input string was not in a correct format.

 Error Page Url: http://localhost:2423/Item/Edit/27

User Host IP: 


--------------------------------*End*------------------------------------------



-----------Exception Details on  13-02-2020 21:40:55-----------------
-------------------------------------------------------------------------------------



Log Written Date: 13-02-2020 21:40:55

Error Line No : ges_id)

Error Message: FormatException

Exception Type: System.FormatException

Error Location : Input string was not in a correct format.

 Error Page Url: http://localhost:2423/Item/Edit/27

User Host IP: 


--------------------------------*End*------------------------------------------



