-----------Exception Details on  16-07-2018 04:41:46 PM-----------------
-------------------------------------------------------------------------------------



Log Written Date: 16-07-2018 04:41:46 PM

Error Line No : ine 220

Error Message: DbUpdateException

Exception Type: System.Data.Entity.Infrastructure.DbUpdateException

Error Location : An error occurred while updating the entries. See the inner exception for details.

 Error Page Url: http://localhost:2423/CustomerPO/Create

User Host IP: 


--------------------------------*End*------------------------------------------



-----------Exception Details on  16-07-2018 04:52:42 PM-----------------
-------------------------------------------------------------------------------------



Log Written Date: 16-07-2018 04:52:42 PM

Error Line No : ine 220

Error Message: DbUpdateException

Exception Type: System.Data.Entity.Infrastructure.DbUpdateException

Error Location : An error occurred while updating the entries. See the inner exception for details.

 Error Page Url: http://localhost:2423/CustomerPO/Create

User Host IP: 


--------------------------------*End*------------------------------------------



