-----------Exception Details on  16-09-2019 09:46:05-----------------
-------------------------------------------------------------------------------------



Log Written Date: 16-09-2019 09:46:05

Error Line No : ine 238

Error Message: FormatException

Exception Type: System.FormatException

Error Location : The DateTime represented by the string is not supported in calendar System.Globalization.GregorianCalendar.

 Error Page Url: http://localhost:2423/CustomerEnquiry/Create

User Host IP: 


--------------------------------*End*------------------------------------------



-----------Exception Details on  16-09-2019 09:49:28-----------------
-------------------------------------------------------------------------------------



Log Written Date: 16-09-2019 09:49:28

Error Line No : ine 238

Error Message: FormatException

Exception Type: System.FormatException

Error Location : The DateTime represented by the string is not supported in calendar System.Globalization.GregorianCalendar.

 Error Page Url: http://localhost:2423/CustomerEnquiry/Create

User Host IP: 


--------------------------------*End*------------------------------------------



