-----------Exception Details on  16-01-2020 19:49:28-----------------
-------------------------------------------------------------------------------------



Log Written Date: 16-01-2020 19:49:28

Error Line No : ine 738

Error Message: FormatException

Exception Type: System.FormatException

Error Location : Input string was not in a correct format.

 Error Page Url: http://localhost:2423/BillOfMaterial/Edit/3

User Host IP: 


--------------------------------*End*------------------------------------------



