-----------Exception Details on  16-12-2019 15:37:23-----------------
-------------------------------------------------------------------------------------



Log Written Date: 16-12-2019 15:37:23

Error Line No : ine 148

Error Message: NullReferenceException

Exception Type: System.NullReferenceException

Error Location : Object reference not set to an instance of an object.

 Error Page Url: http://localhost:2423/Company/Edit/2

User Host IP: 


--------------------------------*End*------------------------------------------



-----------Exception Details on  16-12-2019 15:49:27-----------------
-------------------------------------------------------------------------------------



Log Written Date: 16-12-2019 15:49:27

Error Line No : ine 148

Error Message: NullReferenceException

Exception Type: System.NullReferenceException

Error Location : Object reference not set to an instance of an object.

 Error Page Url: http://localhost:2423/Company/Edit/2

User Host IP: 


--------------------------------*End*------------------------------------------



-----------Exception Details on  16-12-2019 15:50:15-----------------
-------------------------------------------------------------------------------------



Log Written Date: 16-12-2019 15:50:15

Error Line No : ine 148

Error Message: NullReferenceException

Exception Type: System.NullReferenceException

Error Location : Object reference not set to an instance of an object.

 Error Page Url: http://localhost:2423/Company/Edit/2

User Host IP: 


--------------------------------*End*------------------------------------------



-----------Exception Details on  16-12-2019 15:52:15-----------------
-------------------------------------------------------------------------------------



Log Written Date: 16-12-2019 15:52:15

Error Line No : on frm)

Error Message: NullReferenceException

Exception Type: System.NullReferenceException

Error Location : Object reference not set to an instance of an object.

 Error Page Url: http://localhost:2423/Company/Edit/2

User Host IP: 


--------------------------------*End*------------------------------------------



-----------Exception Details on  16-12-2019 15:52:51-----------------
-------------------------------------------------------------------------------------



Log Written Date: 16-12-2019 15:52:51

Error Line No : on frm)

Error Message: NullReferenceException

Exception Type: System.NullReferenceException

Error Location : Object reference not set to an instance of an object.

 Error Page Url: http://localhost:2423/Company/Edit/2

User Host IP: 


--------------------------------*End*------------------------------------------



