-----------Exception Details on  17-10-2019 12:50:09-----------------
-------------------------------------------------------------------------------------



Log Written Date: 17-10-2019 12:50:09

Error Line No : ine 189

Error Message: IndexOutOfRangeException

Exception Type: System.IndexOutOfRangeException

Error Location : Index was outside the bounds of the array.

 Error Page Url: http://localhost:2423/Workorder/Create2

User Host IP: 


--------------------------------*End*------------------------------------------



-----------Exception Details on  17-10-2019 12:57:07-----------------
-------------------------------------------------------------------------------------



Log Written Date: 17-10-2019 12:57:07

Error Line No : ine 189

Error Message: IndexOutOfRangeException

Exception Type: System.IndexOutOfRangeException

Error Location : Index was outside the bounds of the array.

 Error Page Url: http://localhost:2423/Workorder/Create2

User Host IP: 


--------------------------------*End*------------------------------------------



-----------Exception Details on  17-10-2019 12:59:52-----------------
-------------------------------------------------------------------------------------



Log Written Date: 17-10-2019 12:59:52

Error Line No : ine 189

Error Message: IndexOutOfRangeException

Exception Type: System.IndexOutOfRangeException

Error Location : Index was outside the bounds of the array.

 Error Page Url: http://localhost:2423/Workorder/Create2

User Host IP: 


--------------------------------*End*------------------------------------------



