-----------Exception Details on  20-12-2019 19:26:05-----------------
-------------------------------------------------------------------------------------



Log Written Date: 20-12-2019 19:26:05

Error Line No : line 65

Error Message: FormatException

Exception Type: System.FormatException

Error Location : Input string was not in a correct format.

 Error Page Url: http://localhost:2423/Machine/Create

User Host IP: 


--------------------------------*End*------------------------------------------



