-----------Exception Details on  22-01-2020 16:51:17-----------------
-------------------------------------------------------------------------------------



Log Written Date: 22-01-2020 16:51:17

Error Line No : ges_id)

Error Message: ArgumentOutOfRangeException

Exception Type: System.ArgumentOutOfRangeException

Error Location : Index was out of range. Must be non-negative and less than the size of the collection.
Parameter name: index

 Error Page Url: http://localhost:2423/Item/Create

User Host IP: 


--------------------------------*End*------------------------------------------



