-----------Exception Details on  25-05-2018 12:45:52 PM-----------------
-------------------------------------------------------------------------------------



Log Written Date: 25-05-2018 12:45:52 PM

Error Line No : line 54

Error Message: EntityException

Exception Type: System.Data.Entity.Core.EntityException

Error Location : The underlying provider failed on Open.

 Error Page Url: http://localhost:2423/

User Host IP: 


--------------------------------*End*------------------------------------------



-----------Exception Details on  25-05-2018 12:46:14 PM-----------------
-------------------------------------------------------------------------------------



Log Written Date: 25-05-2018 12:46:14 PM

Error Line No : line 54

Error Message: EntityException

Exception Type: System.Data.Entity.Core.EntityException

Error Location : The underlying provider failed on Open.

 Error Page Url: http://localhost:2423/

User Host IP: 


--------------------------------*End*------------------------------------------



