-----------Exception Details on  25-10-2019 09:12:56-----------------
-------------------------------------------------------------------------------------



Log Written Date: 25-10-2019 09:12:56

Error Line No : ine 242

Error Message: FormatException

Exception Type: System.FormatException

Error Location : Input string was not in a correct format.

 Error Page Url: http://localhost:2423/ProductionPlan/Edit

User Host IP: 


--------------------------------*End*------------------------------------------



-----------Exception Details on  25-10-2019 09:23:37-----------------
-------------------------------------------------------------------------------------



Log Written Date: 25-10-2019 09:23:37

Error Line No : ine 289

Error Message: DbEntityValidationException

Exception Type: System.Data.Entity.Validation.DbEntityValidationException

Error Location : Validation failed for one or more entities. See 'EntityValidationErrors' property for more details.

 Error Page Url: http://localhost:2423/ProductionPlan/Edit

User Host IP: 


--------------------------------*End*------------------------------------------



-----------Exception Details on  25-10-2019 09:25:58-----------------
-------------------------------------------------------------------------------------



Log Written Date: 25-10-2019 09:25:58

Error Line No : on frm)

Error Message: DbEntityValidationException

Exception Type: System.Data.Entity.Validation.DbEntityValidationException

Error Location : Validation failed for one or more entities. See 'EntityValidationErrors' property for more details.

 Error Page Url: http://localhost:2423/ProductionPlan/Edit

User Host IP: 


--------------------------------*End*------------------------------------------



-----------Exception Details on  25-10-2019 09:28:07-----------------
-------------------------------------------------------------------------------------



Log Written Date: 25-10-2019 09:28:07

Error Line No : on frm)

Error Message: DbEntityValidationException

Exception Type: System.Data.Entity.Validation.DbEntityValidationException

Error Location : Validation failed for one or more entities. See 'EntityValidationErrors' property for more details.

 Error Page Url: http://localhost:2423/ProductionPlan/Edit

User Host IP: 


--------------------------------*End*------------------------------------------



